{
  "count": 1118,
  "next": "https://pokeapi.co/api/v2/pokemon?offset=1&limit=1",
  "previous": null,
  "results": [
    { "name": "charizard", "url": "https://pokeapi.co/api/v2/pokemon/6/" }
  ]
}
